﻿Vacuum,1.00
Air,1.00
Water,1.33
Smoked Glass,1.40
Armored Glass,1.50
Ice,1.31
LCD Screen,4.52
Alcohol,1.36
Glycerin,1.47
Glass,1.50
Kitchen Salt,1.54
Quartz,1.54
Carbon Disulfide,1.63
Zirconium,1.92
Diamond,2.42
Rutile,2.80
Acrylic,1.49
Cubic Zirconia,2.20
Fluorite,1.43
Gallium Phosphide,3.50
Optical Glass,1.52
Flint Glass,1.66
Polystyrene,1.49
Sodium Chloride,1.54
Benzeno,1.50
Tetracloreto de Carbono,1.46